…
```
## # A tibble: 1 x 1
##       n
##   <int>
## 1 34786
```

```r
deserts%>%
  count(species)%>%
  arrange(desc(n))
```

```
## # A tibble: 40 x 2
##    species          n
##    <chr>        <int>
##  1 merriami     10596
##  2 penicillatus  3123
##  3 ordii         3027
##  4 baileyi       2891
##  5 megalotis     2609
##  6 spectabilis   2504
##  7 torridus      2249
##  8 flavus        1597
##  9 eremicus      1299
## 10 albigula      1252
## # ... with 30 more rows
```
…
Albigula and spectabilis have the highest average weight.

```r
deserts%>%
  group_by(species)%>%
  summarize(mean_wight = mean(weight, na.rm = T))%>%
  arrange(desc(mean_wight))
```

```
## `summarise()` ungrouping output (override with `.groups` argument)
```

```
## # A tibble: 40 x 2
##    species      mean_wight
##    <chr>             <dbl>
##  1 albigula          159. 
##  2 spectabilis       120. 
##  3 spilosoma          93.5
##  4 hispidus           65.6
##  5 fulviventer        58.9
##  6 ochrognathus       55.4
##  7 ordii              48.9
##  8 merriami           43.2
##  9 baileyi            31.7
## 10 leucogaster        31.6
## # ... with 30 more rows
```
…
