…
**7. Which countries have had the largest population growth since 1952?**

```r
gapminder%>%
  group_by(country)%>%
  filter(year==1952|year==2007)%>%
  mutate(pop_growth=pop-lag(pop,default = pop[1]))%>%
  arrange(desc(pop_growth))%>%
  select(country, pop_growth)
```

```
## # A tibble: 284 x 2
## # Groups:   country [142]
##    country       pop_growth
##    <fct>              <int>
##  1 China          762419569
##  2 India          738396331
##  3 United States  143586947
##  4 Indonesia      141495000
##  5 Brazil         133408087
##  6 Pakistan       127924057
##  7 Bangladesh     103561480
##  8 Nigeria        101912068
##  9 Mexico          78556574
## 10 Philippines     68638596
## # ... with 274 more rows
```
…
