…
```r
us_collar_list
```

```
## [[1]]
## # A tibble: 24 x 6
##       X1 date       collar time                  lat  long
##    <dbl> <date>     <chr>  <dttm>              <dbl> <dbl>
##  1     1 2016-02-26 A1     2016-02-26 00:00:00  37.0 -116.
##  2     2 2016-02-26 A1     2016-02-26 01:00:00  38.4 -117.
##  3     3 2016-02-26 A1     2016-02-26 02:00:00  37.9 -117.
##  4     4 2016-02-26 A1     2016-02-26 03:00:00  38.1 -115.
##  5     5 2016-02-26 A1     2016-02-26 04:00:00  35.4 -116.
##  6     6 2016-02-26 A1     2016-02-26 05:00:00  36.6 -114.
##  7     7 2016-02-26 A1     2016-02-26 06:00:00  36.9 -115.
##  8     8 2016-02-26 A1     2016-02-26 07:00:00  37.3 -115.
##  9     9 2016-02-26 A1     2016-02-26 08:00:00  35.6 -114.
## 10    10 2016-02-26 A1     2016-02-26 09:00:00  35.9 -114.
## # ... with 14 more rows
## 
## [[2]]
## # A tibble: 24 x 6
##       X1 date       collar time                  lat  long
##    <dbl> <date>     <chr>  <dttm>              <dbl> <dbl>
##  1     1 2016-02-26 B2     2016-02-26 00:00:00  34.3 -119.
##  2     2 2016-02-26 B2     2016-02-26 01:00:00  35.3 -118.
##  3     3 2016-02-26 B2     2016-02-26 02:00:00  37.0 -118.
##  4     4 2016-02-26 B2     2016-02-26 03:00:00  36.6 -117.
##  5     5 2016-02-26 B2     2016-02-26 04:00:00  35.9 -118.
##  6     6 2016-02-26 B2     2016-02-26 05:00:00  35.3 -117.
##  7     7 2016-02-26 B2     2016-02-26 06:00:00  33.8 -115.
##  8     8 2016-02-26 B2     2016-02-26 07:00:00  35.4 -115.
##  9     9 2016-02-26 B2     2016-02-26 08:00:00  34.7 -115.
## 10    10 2016-02-26 B2     2016-02-26 09:00:00  35.2 -115.
## # ... with 14 more rows
## 
## [[3]]
## # A tibble: 24 x 6
##       X1 date       collar time                  lat  long
##    <dbl> <date>     <chr>  <dttm>              <dbl> <dbl>
##  1     1 2016-02-26 C3     2016-02-26 00:00:00  37.0 -116.
##  2     2 2016-02-26 C3     2016-02-26 01:00:00  35.1 -116.
##  3     3 2016-02-26 C3     2016-02-26 02:00:00  35.7 -115.
##  4     4 2016-02-26 C3     2016-02-26 03:00:00  36.6 -116.
##  5     5 2016-02-26 C3     2016-02-26 04:00:00  38.1 -115.
##  6     6 2016-02-26 C3     2016-02-26 05:00:00  37.5 -116.
##  7     7 2016-02-26 C3     2016-02-26 06:00:00  38.0 -117.
##  8     8 2016-02-26 C3     2016-02-26 07:00:00  38.5 -116.
##  9     9 2016-02-26 C3     2016-02-26 08:00:00  37.6 -115.
## 10    10 2016-02-26 C3     2016-02-26 09:00:00  36.2 -113.
## # ... with 14 more rows
## 
## [[4]]
## # A tibble: 24 x 6
##       X1 date       collar time                  lat  long
##    <dbl> <date>     <chr>  <dttm>              <dbl> <dbl>
##  1     1 2016-02-26 D4     2016-02-26 00:00:00  37.4 -117.
##  2     2 2016-02-26 D4     2016-02-26 01:00:00  36.7 -118.
##  3     3 2016-02-26 D4     2016-02-26 02:00:00  35.6 -120.
##  4     4 2016-02-26 D4     2016-02-26 03:00:00  36.7 -118.
##  5     5 2016-02-26 D4     2016-02-26 04:00:00  37.0 -117.
##  6     6 2016-02-26 D4     2016-02-26 05:00:00  37.8 -115.
##  7     7 2016-02-26 D4     2016-02-26 06:00:00  36.8 -116.
##  8     8 2016-02-26 D4     2016-02-26 07:00:00  38.6 -118.
##  9     9 2016-02-26 D4     2016-02-26 08:00:00  39.3 -116.
## 10    10 2016-02-26 D4     2016-02-26 09:00:00  39.6 -116.
## # ... with 14 more rows
## 
## [[5]]
## # A tibble: 24 x 6
##       X1 date       collar time                  lat  long
##    <dbl> <date>     <chr>  <dttm>              <dbl> <dbl>
##  1     1 2016-02-26 E5     2016-02-26 00:00:00  35.8 -116.
##  2     2 2016-02-26 E5     2016-02-26 01:00:00  35.9 -117.
##  3     3 2016-02-26 E5     2016-02-26 02:00:00  35.1 -117.
##  4     4 2016-02-26 E5     2016-02-26 03:00:00  35.7 -118.
##  5     5 2016-02-26 E5     2016-02-26 04:00:00  35.8 -119.
##  6     6 2016-02-26 E5     2016-02-26 05:00:00  36.1 -119.
##  7     7 2016-02-26 E5     2016-02-26 06:00:00  35.8 -118.
##  8     8 2016-02-26 E5     2016-02-26 07:00:00  36.0 -117.
##  9     9 2016-02-26 E5     2016-02-26 08:00:00  36.5 -116.
## 10    10 2016-02-26 E5     2016-02-26 09:00:00  37.1 -117.
## # ... with 14 more rows
## 
## [[6]]
## # A tibble: 24 x 6
##       X1 date       collar time                  lat  long
##    <dbl> <date>     <chr>  <dttm>              <dbl> <dbl>
##  1     1 2016-02-26 F6     2016-02-26 00:00:00  35.1 -119.
##  2     2 2016-02-26 F6     2016-02-26 01:00:00  35.4 -117.
##  3     3 2016-02-26 F6     2016-02-26 02:00:00  36.4 -117.
##  4     4 2016-02-26 F6     2016-02-26 03:00:00  35.5 -116.
##  5     5 2016-02-26 F6     2016-02-26 04:00:00  36.4 -116.
##  6     6 2016-02-26 F6     2016-02-26 05:00:00  36.6 -114.
##  7     7 2016-02-26 F6     2016-02-26 06:00:00  37.6 -114.
##  8     8 2016-02-26 F6     2016-02-26 07:00:00  36.1 -114.
##  9     9 2016-02-26 F6     2016-02-26 08:00:00  35.8 -115.
## 10    10 2016-02-26 F6     2016-02-26 09:00:00  37.1 -112.
## # ... with 14 more rows
## 
## [[7]]
## # A tibble: 24 x 6
##       X1 date       collar time                  lat  long
##    <dbl> <date>     <chr>  <dttm>              <dbl> <dbl>
##  1     1 2016-02-26 G7     2016-02-26 00:00:00  35.9 -118.
##  2     2 2016-02-26 G7     2016-02-26 01:00:00  35.9 -116.
##  3     3 2016-02-26 G7     2016-02-26 02:00:00  37.0 -115.
##  4     4 2016-02-26 G7     2016-02-26 03:00:00  36.6 -115.
##  5     5 2016-02-26 G7     2016-02-26 04:00:00  37.2 -115.
##  6     6 2016-02-26 G7     2016-02-26 05:00:00  36.5 -115.
##  7     7 2016-02-26 G7     2016-02-26 06:00:00  35.8 -114.
##  8     8 2016-02-26 G7     2016-02-26 07:00:00  35.6 -114.
##  9     9 2016-02-26 G7     2016-02-26 08:00:00  36.8 -113.
## 10    10 2016-02-26 G7     2016-02-26 09:00:00  36.6 -112.
## # ... with 14 more rows
## 
## [[8]]
## # A tibble: 24 x 6
##       X1 date       collar time                  lat  long
##    <dbl> <date>     <chr>  <dttm>              <dbl> <dbl>
##  1     1 2016-02-26 H8     2016-02-26 00:00:00  34.6 -116.
##  2     2 2016-02-26 H8     2016-02-26 01:00:00  34.2 -116.
##  3     3 2016-02-26 H8     2016-02-26 02:00:00  33.9 -115.
##  4     4 2016-02-26 H8     2016-02-26 03:00:00  35.5 -117.
##  5     5 2016-02-26 H8     2016-02-26 04:00:00  35.3 -118.
##  6     6 2016-02-26 H8     2016-02-26 05:00:00  33.8 -118.
##  7     7 2016-02-26 H8     2016-02-26 06:00:00  34.1 -118.
##  8     8 2016-02-26 H8     2016-02-26 07:00:00  34.3 -117.
##  9     9 2016-02-26 H8     2016-02-26 08:00:00  34.0 -115.
## 10    10 2016-02-26 H8     2016-02-26 09:00:00  32.7 -114.
## # ... with 14 more rows
## 
## [[9]]
## # A tibble: 24 x 6
##       X1 date       collar time                  lat  long
##    <dbl> <date>     <chr>  <dttm>              <dbl> <dbl>
##  1     1 2016-02-26 I9     2016-02-26 00:00:00  37.8 -116.
##  2     2 2016-02-26 I9     2016-02-26 01:00:00  36.9 -115.
##  3     3 2016-02-26 I9     2016-02-26 02:00:00  36.7 -115.
##  4     4 2016-02-26 I9     2016-02-26 03:00:00  36.3 -114.
##  5     5 2016-02-26 I9     2016-02-26 04:00:00  35.5 -115.
##  6     6 2016-02-26 I9     2016-02-26 05:00:00  34.7 -114.
##  7     7 2016-02-26 I9     2016-02-26 06:00:00  33.5 -115.
##  8     8 2016-02-26 I9     2016-02-26 07:00:00  34.3 -115.
##  9     9 2016-02-26 I9     2016-02-26 08:00:00  35.2 -115.
## 10    10 2016-02-26 I9     2016-02-26 09:00:00  34.6 -115.
## # ... with 14 more rows
## 
## [[10]]
## # A tibble: 24 x 6
##       X1 date       collar time                  lat  long
##    <dbl> <date>     <chr>  <dttm>              <dbl> <dbl>
##  1     1 2016-02-26 J10    2016-02-26 00:00:00  36.3 -118.
##  2     2 2016-02-26 J10    2016-02-26 01:00:00  36.9 -118.
##  3     3 2016-02-26 J10    2016-02-26 02:00:00  37.1 -117.
##  4     4 2016-02-26 J10    2016-02-26 03:00:00  36.1 -116.
##  5     5 2016-02-26 J10    2016-02-26 04:00:00  37.6 -114.
##  6     6 2016-02-26 J10    2016-02-26 05:00:00  37.2 -115.
##  7     7 2016-02-26 J10    2016-02-26 06:00:00  37.5 -114.
##  8     8 2016-02-26 J10    2016-02-26 07:00:00  37.5 -113.
##  9     9 2016-02-26 J10    2016-02-26 08:00:00  37.3 -112.
## 10    10 2016-02-26 J10    2016-02-26 09:00:00  37.3 -112.
## # ... with 14 more rows
```
…
