…
The data shows that the numbers of households in different transects seems to have no great impact on diversity and richness of all species.  

```r
verberate%>%
  group_by(TransectID)%>%
  summarize(NumHouseholds, Diversity_AllSpecies, Rich_AllSpecies)%>%
  arrange(NumHouseholds)
```

```
## `summarise()` has grouped output by 'TransectID'. You can override using the `.groups` argument.
```

```
## # A tibble: 24 x 4
## # Groups:   TransectID [23]
##    TransectID NumHouseholds Diversity_AllSpecies Rich_AllSpecies
##         <dbl>         <dbl>                <dbl>           <dbl>
##  1         22            13                 2.37              22
##  2         27            13                 2.38              19
##  3         18            17                 2.36              20
##  4         17            19                 2.45              20
##  5         20            24                 2.27              16
##  6         21            24                 2.45              19
##  7          8            25                 2.28              19
##  8          2            29                 2.29              22
##  9          3            29                 2.01              19
## 10          4            29                 2.43              20
## # … with 14 more rows
```
…
