…
```r
taxa <- select(homerange, "taxon", "common.name", "class", "order", "family", "genus", "species")
taxa
```

```
## # A tibble: 569 x 7
##    taxon     common.name       class      order     family    genus    species  
##    <fct>     <chr>             <chr>      <fct>     <chr>     <chr>    <chr>    
##  1 lake fis~ american eel      actinopte~ anguilli~ anguilli~ anguilla rostrata 
##  2 river fi~ blacktail redhor~ actinopte~ cyprinif~ catostom~ moxosto~ poecilura
##  3 river fi~ central stonerol~ actinopte~ cyprinif~ cyprinid~ campost~ anomalum 
##  4 river fi~ rosyside dace     actinopte~ cyprinif~ cyprinid~ clinost~ funduloi~
##  5 river fi~ longnose dace     actinopte~ cyprinif~ cyprinid~ rhinich~ cataract~
##  6 river fi~ muskellunge       actinopte~ esocifor~ esocidae  esox     masquino~
##  7 marine f~ pollack           actinopte~ gadiform~ gadidae   pollach~ pollachi~
##  8 marine f~ saithe            actinopte~ gadiform~ gadidae   pollach~ virens   
##  9 marine f~ lined surgeonfish actinopte~ percifor~ acanthur~ acanthu~ lineatus 
## 10 marine f~ orangespine unic~ actinopte~ percifor~ acanthur~ naso     lituratus
## # ... with 559 more rows
```
…
**7. Make two new data frames, one which is restricted to carnivores and another that is restricted to herbivores.**  


```r
carnivores <- filter(homerange, trophic.guild == "carnivore")
carnivores
```

```
## # A tibble: 342 x 24
##    taxon common.name class order family genus species primarymethod N    
##    <fct> <chr>       <chr> <fct> <chr>  <chr> <chr>   <chr>         <chr>
##  1 lake~ american e~ acti~ angu~ angui~ angu~ rostra~ telemetry     16   
##  2 rive~ blacktail ~ acti~ cypr~ catos~ moxo~ poecil~ mark-recaptu~ <NA> 
##  3 rive~ central st~ acti~ cypr~ cypri~ camp~ anomal~ mark-recaptu~ 20   
##  4 rive~ rosyside d~ acti~ cypr~ cypri~ clin~ fundul~ mark-recaptu~ 26   
##  5 rive~ longnose d~ acti~ cypr~ cypri~ rhin~ catara~ mark-recaptu~ 17   
##  6 rive~ muskellunge acti~ esoc~ esoci~ esox  masqui~ telemetry     5    
##  7 mari~ pollack     acti~ gadi~ gadid~ poll~ pollac~ telemetry     2    
##  8 mari~ saithe      acti~ gadi~ gadid~ poll~ virens  telemetry     2    
##  9 mari~ giant trev~ acti~ perc~ caran~ cara~ ignobi~ telemetry     4    
## 10 lake~ rock bass   acti~ perc~ centr~ ambl~ rupest~ mark-recaptu~ 16   
## # ... with 332 more rows, and 15 more variables: mean.mass.g <dbl>,
## #   log10.mass <dbl>, alternative.mass.reference <chr>, mean.hra.m2 <dbl>,
## #   log10.hra <dbl>, hra.reference <chr>, realm <chr>, thermoregulation <chr>,
## #   locomotion <chr>, trophic.guild <chr>, dimension <chr>, preymass <dbl>,
## #   log10.preymass <dbl>, PPMR <dbl>, prey.size.reference <chr>
```

```r
herbivores <- filter(homerange, trophic.guild == "herbivore")
herbivores
```

```
## # A tibble: 227 x 24
##    taxon common.name class order family genus species primarymethod N    
##    <fct> <chr>       <chr> <fct> <chr>  <chr> <chr>   <chr>         <chr>
##  1 mari~ lined surg~ acti~ perc~ acant~ acan~ lineat~ direct obser~ <NA> 
##  2 mari~ orangespin~ acti~ perc~ acant~ naso  litura~ telemetry     8    
##  3 mari~ bluespine ~ acti~ perc~ acant~ naso  unicor~ telemetry     7    
##  4 mari~ redlip ble~ acti~ perc~ blenn~ ophi~ atlant~ direct obser~ 20   
##  5 mari~ bermuda ch~ acti~ perc~ kypho~ kyph~ sectat~ telemetry     11   
##  6 mari~ cherubfish  acti~ perc~ pomac~ cent~ argi    direct obser~ <NA> 
##  7 mari~ damselfish  acti~ perc~ pomac~ chro~ chromis direct obser~ <NA> 
##  8 mari~ twinspot d~ acti~ perc~ pomac~ chry~ biocel~ direct obser~ 18   
##  9 mari~ wards dams~ acti~ perc~ pomac~ poma~ wardi   direct obser~ <NA> 
## 10 mari~ australian~ acti~ perc~ pomac~ steg~ apical~ direct obser~ <NA> 
## # ... with 217 more rows, and 15 more variables: mean.mass.g <dbl>,
## #   log10.mass <dbl>, alternative.mass.reference <chr>, mean.hra.m2 <dbl>,
## #   log10.hra <dbl>, hra.reference <chr>, realm <chr>, thermoregulation <chr>,
## #   locomotion <chr>, trophic.guild <chr>, dimension <chr>, preymass <dbl>,
## #   log10.preymass <dbl>, PPMR <dbl>, prey.size.reference <chr>
```
…
