…
```r
fisheries_tidy%>%
  count(country,
        total = n())
```

```
## # A tibble: 203 x 3
##    country              total     n
##    <fct>                <int> <int>
##  1 Albania             376771   934
##  2 Algeria             376771  1561
##  3 American Samoa      376771   556
##  4 Angola              376771  2119
##  5 Anguilla            376771   129
##  6 Antigua and Barbuda 376771   356
##  7 Argentina           376771  3403
##  8 Aruba               376771   172
##  9 Australia           376771  8183
## 10 Bahamas             376771   423
## # ... with 193 more rows
```


4. Refocus the data only to include only: country, isscaap_taxonomic_group, asfis_species_name, asfis_species_number, year, catch.

```r
fisheries_tidy%>%
  select(country, isscaap_taxonomic_group, asfis_species_name, asfis_species_number, year, catch)
```

```
## # A tibble: 376,771 x 6
##    country isscaap_taxonomic_g~ asfis_species_na~ asfis_species_num~  year catch
##    <fct>   <chr>                <chr>             <fct>              <dbl> <chr>
##  1 Albania Sharks, rays, chima~ Squatinidae       10903XXXXX          1995 ""   
##  2 Albania Sharks, rays, chima~ Squatinidae       10903XXXXX          1996 "53" 
##  3 Albania Sharks, rays, chima~ Squatinidae       10903XXXXX          1997 "20" 
##  4 Albania Sharks, rays, chima~ Squatinidae       10903XXXXX          1998 "31" 
##  5 Albania Sharks, rays, chima~ Squatinidae       10903XXXXX          1999 "30" 
##  6 Albania Sharks, rays, chima~ Squatinidae       10903XXXXX          2000 "30" 
##  7 Albania Sharks, rays, chima~ Squatinidae       10903XXXXX          2001 "16" 
##  8 Albania Sharks, rays, chima~ Squatinidae       10903XXXXX          2002 "79" 
##  9 Albania Sharks, rays, chima~ Squatinidae       10903XXXXX          2003 "1"  
## 10 Albania Sharks, rays, chima~ Squatinidae       10903XXXXX          2004 "4"  
## # ... with 376,761 more rows
```
…
6. Which country had the largest overall catch in the year 2000?

United States of America	

```r
fisheries_tidy%>%
  filter(year == 2000)%>%
  group_by(country)%>%
  count(catch, sort = T)
```

```
## # A tibble: 3,454 x 3
## # Groups:   country [193]
##    country                  catch     n
##    <fct>                    <chr> <int>
##  1 United States of America ""      134
##  2 Spain                    ""      133
##  3 Portugal                 ""      112
##  4 Australia                ""       79
##  5 Korea, Republic of       ""       79
##  6 France                   ""       77
##  7 Taiwan Province of China ""       71
##  8 Japan                    ""       61
##  9 United Kingdom           ""       56
## 10 Saudi Arabia             ""       51
## # ... with 3,444 more rows
```

7. Which country caught the most sardines (_Sardina pilchardus_) between the years 1990-2000?

Spain

```r
fisheries_tidy%>%
  filter(between(year, 1990, 2000),
         asfis_species_name == "Sardina pilchardus")%>%
  group_by(country)%>%
  count(catch, sort = T)
```

```
## # A tibble: 270 x 3
## # Groups:   country [37]
##    country     catch     n
##    <fct>       <chr> <int>
##  1 Spain       "00"      6
##  2 Algeria     "00"      5
##  3 Germany     ""        5
##  4 Albania     ""        4
##  5 Mauritania  "0"       4
##  6 Spain       "29"      4
##  7 Turkey      "00"      4
##  8 Estonia     ""        3
##  9 France      "2"       3
## 10 Netherlands ""        3
## # ... with 260 more rows
```

8. Which five countries caught the most cephalopods between 2008-2012?

Somalia,Viet Nam, TimorLeste, Madagascar, Cambodia

```r
fisheries_tidy%>%
  filter(between(year, 2008, 2012),
         asfis_species_name == "Cephalopoda")%>%
  group_by(country)%>%
  count(catch, sort = T)
```

```
## # A tibble: 64 x 3
## # Groups:   country [16]
##    country    catch     n
##    <fct>      <chr> <int>
##  1 Somalia    ""        5
##  2 Viet Nam   "000"     5
##  3 TimorLeste "15"      4
##  4 Madagascar "0"       3
##  5 Cambodia   "0"       2
##  6 France     "1"       2
##  7 France     "2"       2
##  8 Algeria    "19"      1
##  9 Algeria    "22"      1
## 10 Algeria    "29"      1
## # ... with 54 more rows
```

9. Which species had the highest catch total between 2008-2012? (hint: Osteichthyes is not a species)

Xiphias gladius

```r
fisheries_tidy%>%
  filter(between(year, 2008, 2012))%>%
  group_by(asfis_species_name)%>%
  count(catch, sort = T)
```

```
## # A tibble: 18,350 x 3
## # Groups:   asfis_species_name [1,472]
##    asfis_species_name catch     n
##    <chr>              <chr> <int>
##  1 Osteichthyes       ""      459
##  2 Xiphias gladius    ""      339
##  3 Thunnus obesus     ""      321
##  4 Thunnus albacares  ""      305
##  5 Thunnus alalunga   ""      244
##  6 Elasmobranchii     ""      241
##  7 Mugilidae          ""      159
##  8 Katsuwonus pelamis ""      153
##  9 Makaira nigricans  ""      152
## 10 Sphyraena spp      ""      144
## # ... with 18,340 more rows
```
10. Use the data to do at least one analysis of your choice.

Which country catch the most Sphyraena spp in 2010.
Egypt

```r
fisheries_tidy%>%
  filter(year == 2010,
         asfis_species_name == "Sphyraena spp")%>%
  group_by(country)%>%
  count(catch, sort = T)
```

```
## # A tibble: 75 x 3
## # Groups:   country [69]
##    country             catch     n
##    <fct>               <chr> <int>
##  1 Egypt               ""        2
##  2 Mexico              ""        2
##  3 Albania             "7"       1
##  4 Algeria             ""        1
##  5 American Samoa      ""        1
##  6 Angola              "32"      1
##  7 Antigua and Barbuda "6"       1
##  8 Bahrain             "49"      1
##  9 Belize              "29"      1
## 10 Benin               ""        1
## # ... with 65 more rows
```
…
